[gd_scene load_steps=3 format=2]

[ext_resource path="res://scripts/HexMap/HexMap.gd" type="Script" id=1]
[ext_resource path="res://scripts/Camera/Camera.gd" type="Script" id=2]

[node name="HexMap" type="Node2D"]
script = ExtResource( 1 )

[node name="Camera2D" type="Camera2D" parent="."]
position = Vector2( 960, 540 )
script = ExtResource( 2 )
min_zoom = 2.0
max_zoom = 0.25
speed = 0.09

[node name="Cells" type="Node2D" parent="."]
